{
	"links": [{
		"rel": "first",
		"href": "http://localhost:8306/messaging-service/getAllDistributionList?page=1&size=10",
		"hreflang": null,
		"media": null,
		"title": null,
		"type": null,
		"deprecation": null
	}, {
		"rel": "prev",
		"href": "http://localhost:8306/messaging-service/getAllDistributionList?page=2&size=10",
		"hreflang": null,
		"media": null,
		"title": null,
		"type": null,
		"deprecation": null
	}, {
		"rel": "self",
		"href": "http://localhost:8306/messaging-service/getAllDistributionList?page=3&size=10",
		"hreflang": null,
		"media": null,
		"title": null,
		"type": null,
		"deprecation": null
	}, {
		"rel": "last",
		"href": "http://localhost:8306/messaging-service/getAllDistributionList?page=3&size=10",
		"hreflang": null,
		"media": null,
		"title": null,
		"type": null,
		"deprecation": null
	}],
	"content": [{
		"id": "a83df3f2-5505-4da7-8cd7-b5944598a41f",
		"type": "PUBLIC",
		"name": "Test3",
		"recipientTypeId": "8e025435-ef39-4ecc-9320-b8edd6ec661f",
		"filter": {
			"type": ["all"],
			"boardingTime": [{
				"startTime": 1581699000,
				"endTime": 1581697000
			}],
			"cabin": [{
				"cabinLocation": "deck1",
				"cabin": ["1205A", "1205B"]
			}]
		},
		"members": [{
			"id": "e59a2f65-5ebd-49ff-8794-13a39f0b448a",
			"recipientTypeId": null,
			"personId": "d379a44a-d9b2-4ad9-8663-9bb05a25b328",
			"cabin": "10132",
			"cabinLocation": "deck 4"
		}],
		"links": []
	}, {
		"id": "8427e4d7-8928-4b2e-a466-307c28150cc1",
		"type": "PUBLIC",
		"name": "Test3",
		"recipientTypeId": "8e025435-ef39-4ecc-9320-b8edd6ec661f",
		"filter": {
			"type": ["all"],
			"boardingTime": [{
				"startTime": 1581699000,
				"endTime": 1581697000
			}],
			"cabin": [{
				"cabinLocation": "deck1",
				"cabin": ["1205A", "1205B"]
			}]
		},
		"members": [{
			"id": "7d1860b4-340b-4e9b-a769-795f7e590749",
			"recipientTypeId": null,
			"personId": "d379a44a-d9b2-4ad9-8663-9bb05a25b328",
			"cabin": "10132",
			"cabinLocation": "deck 4"
		}],
		"links": []
	}, {
		"id": "6703d23a-eed1-4b20-82e1-b364e6fbe71a",
		"type": "PUBLIC",
		"name": "Test44",
		"recipientTypeId": "8e025435-ef39-4ecc-9320-b8edd6ec661f",
		"filter": {
			"type": ["all"],
			"boardingTime": [{
				"startTime": 1581699000,
				"endTime": 1581697000
			}],
			"cabin": [{
				"cabinLocation": "deck1",
				"cabin": ["1205A", "1205B"]
			}]
		},
		"members": [{
			"id": "a45cda06-436e-4dbe-b9f6-0cd582573dbc",
			"recipientTypeId": null,
			"personId": "d379a44a-d9b2-4ad9-8663-9bb05a25b328",
			"cabin": "10132",
			"cabinLocation": "deck 4"
		}],
		"links": []
	}, {
		"id": "dadaf52a-3627-4879-8a74-7371327cbdcc",
		"type": "PUBLIC",
		"name": "Test44",
		"recipientTypeId": "8e025435-ef39-4ecc-9320-b8edd6ec661f",
		"filter": {
			"type": ["all"],
			"boardingTime": [{
				"startTime": 1581699000,
				"endTime": 1581697000
			}],
			"cabin": [{
				"cabinLocation": "deck1",
				"cabin": ["1205A", "1205B"]
			}]
		},
		"members": [{
			"id": "00efb15c-2b02-45b2-ad03-038ea43a7a32",
			"recipientTypeId": null,
			"personId": "d379a44a-d9b2-4ad9-8663-9bb05a25b328",
			"cabin": "10132",
			"cabinLocation": "deck 4"
		}],
		"links": []
	}, {
		"id": "2d261649-0b19-4945-aed1-e627299eb39c",
		"type": "PUBLIC",
		"name": "Test44",
		"recipientTypeId": "8e025435-ef39-4ecc-9320-b8edd6ec661f",
		"filter": {
			"type": ["all"],
			"boardingTime": [{
				"startTime": 1581699000,
				"endTime": 1581697000
			}],
			"cabin": [{
				"cabinLocation": "deck1",
				"cabin": ["1205A", "1205B"]
			}]
		},
		"members": [{
			"id": "aa54e9ef-6da5-4d6f-897d-b16c84b4949e",
			"recipientTypeId": null,
			"personId": "d379a44a-d9b2-4ad9-8663-9bb05a25b328",
			"cabin": "10132",
			"cabinLocation": "deck 4"
		}],
		"links": []
	}, {
		"id": "43cc7c56-d946-4507-8da6-2532e9ad14ae",
		"type": "PUBLIC",
		"name": "Test44",
		"recipientTypeId": "8e025435-ef39-4ecc-9320-b8edd6ec661f",
		"filter": {
			"type": ["all"],
			"boardingTime": [{
				"startTime": 1581699000,
				"endTime": 1581697000
			}],
			"cabin": [{
				"cabinLocation": "deck1",
				"cabin": ["1205A", "1205B"]
			}]
		},
		"links": []
	}, {
		"id": "47ff6285-6b57-47e3-8544-5124a1145f4d",
		"type": "PRIVATE",
		"name": "Test3",
		"recipientTypeId": "8e025435-ef39-4ecc-9320-b8edd6ec661f",
		"filter": {
			"type": ["all"],
			"boardingTime": [{
				"startTime": 1581699000,
				"endTime": 1581697000
			}],
			"cabin": [{
				"cabinLocation": "deck1",
				"cabin": ["1205A", "1205B"]
			}]
		},
		"members": [{
			"id": "27ade79d-d312-465d-b059-a379e459101f",
			"recipientTypeId": "8e025435-ef39-4ecc-9320-b8edd6ec661f",
			"personId": "d379a44a-d9b2-4ad9-8663-9bb05a25b328",
			"cabin": "10132",
			"cabinLocation": "deck 4"
		}],
		"links": []
	}, {
		"id": "bea36ba9-5c2b-441e-a200-bd803291bcc4",
		"type": "PRIVATE",
		"name": "Test3",
		"recipientTypeId": "8e025435-ef39-4ecc-9320-b8edd6ec661f",
		"filter": {
			"type": ["all"],
			"boardingTime": [{
				"startTime": 1581699000,
				"endTime": 1581697000
			}],
			"cabin": [{
				"cabinLocation": "deck1",
				"cabin": ["1205A", "1205B"]
			}]
		},
		"members": [{
			"id": "f8f19ad6-65c1-4c25-8fa3-8e69dcd9d10b",
			"recipientTypeId": null,
			"personId": "d379a44a-d9b2-4ad9-8663-9bb05a25b328",
			"cabin": "10132",
			"cabinLocation": "deck 4"
		}],
		"links": []
	}, {
		"id": "9db41685-75eb-4039-b616-3a018e2f201c",
		"type": "PRIVATE",
		"name": "Test3",
		"recipientTypeId": "8e025435-ef39-4ecc-9320-b8edd6ec661f",
		"filter": {
			"type": ["all"],
			"boardingTime": [{
				"startTime": 1581699000,
				"endTime": 1581697000
			}],
			"cabin": [{
				"cabinLocation": "deck1",
				"cabin": ["1205A", "1205B"]
			}]
		},
		"members": [{
			"id": "2beaa8b1-e982-4aaf-8adc-1ddacd6c994a",
			"recipientTypeId": "8e025435-ef39-4ecc-9320-b8edd6ec661f",
			"personId": "d379a44a-d9b2-4ad9-8663-9bb05a25b328",
			"cabin": "10132",
			"cabinLocation": "deck 4"
		}],
		"links": []
	}, {
		"id": "9826685c-134e-47ea-86bb-7b2b89e760d4",
		"type": null,
		"name": "",
		"recipientTypeId": "8e025435-ef39-4ecc-9320-b8edd6ec661f",
		"filter": {
			"type": ["all"],
			"boardingTime": [{
				"startTime": 1581699000,
				"endTime": 1581697000
			}],
			"cabin": [{
				"cabinLocation": "deck1",
				"cabin": ["1205A", "1205B"]
			}]
		},
		"links": []
	}],
	"page": {
		"size": 10,
		"totalElements": 30,
		"totalPages": 3,
		"number": 3
	}
}
